{
    "required_content": [
                            "PAExpansion1"
                        ],
    "endOfTime": 3743.6999999999998,
    "armies": [
                  {
                      "players": [
                                     "Kamesuta"
                                 ],
                      "econ": 1,
                      "ai": false,
                      "secondary_color": [
                                             255,
                                             144,
                                             47
                                         ],
                      "defeated": false,
                      "spec_tag": "",
                      "name": "Kamesuta",
                      "primary_color": [
                                           219,
                                           217,
                                           37
                                       ],
                      "index": 0
                  },
                  {
                      "players": [
                                     "Kamesuta \u200b \u200b \u200b \u200b"
                                 ],
                      "econ": 1,
                      "ai": false,
                      "secondary_color": [
                                             223,
                                             168,
                                             178
                                         ],
                      "defeated": true,
                      "spec_tag": "",
                      "name": "Kamesuta \u200b \u200b \u200b \u200b",
                      "primary_color": [
                                           0,
                                           100,
                                           0
                                       ],
                      "index": 1
                  }
              ],
    "save": {
                "name": "2019-02-13-16-40-47.025Z-replay",
                "type": "replay",
                "utc_timestamp": 1550076047,
                "valid_range": [
                                   34100,
                                   -1
                               ]
            }
}