{
    "required_content": [
                            "PAExpansion1"
                        ],
    "endOfTime": 749.39999999999998,
    "armies": [
                  {
                      "players": [
                                     "Kamesuta"
                                 ],
                      "econ": 1,
                      "ai": false,
                      "secondary_color": [
                                             151,
                                             251,
                                             152
                                         ],
                      "defeated": true,
                      "spec_tag": "",
                      "name": "Kamesuta",
                      "primary_color": [
                                           139,
                                           69,
                                           19
                                       ],
                      "index": 0
                  },
                  {
                      "players": [
                                     "Ka\u200bmesu\u200bta"
                                 ],
                      "econ": 1,
                      "ai": false,
                      "secondary_color": [
                                             70,
                                             70,
                                             70
                                         ],
                      "defeated": true,
                      "spec_tag": "",
                      "name": "Ka\u200bmesu\u200bta",
                      "primary_color": [
                                           223,
                                           18,
                                           129
                                       ],
                      "index": 1
                  },
                  {
                      "players": [
                                     "Kamesuta \u200b \u200b \u200b \u200b"
                                 ],
                      "econ": 1,
                      "ai": false,
                      "secondary_color": [
                                             176,
                                             224,
                                             230
                                         ],
                      "defeated": false,
                      "spec_tag": "",
                      "name": "Kamesuta \u200b \u200b \u200b \u200b",
                      "primary_color": [
                                           0,
                                           223,
                                           0
                                       ],
                      "index": 2
                  }
              ],
    "save": {
                "name": "2019-02-13-14-22-47.207Z-replay",
                "type": "replay",
                "utc_timestamp": 1550067767,
                "valid_range": [
                                   30000,
                                   -1
                               ]
            }
}