{
    "required_content": [
                            "PAExpansion1"
                        ],
    "endOfTime": 3187.8000000000002,
    "armies": [
                  {
                      "players": [
                                     "p0kab0R0s"
                                 ],
                      "econ": 1,
                      "ai": false,
                      "secondary_color": [
                                             200,
                                             200,
                                             200
                                         ],
                      "defeated": true,
                      "spec_tag": "",
                      "name": "p0kab0R0s",
                      "primary_color": [
                                           70,
                                           70,
                                           70
                                       ],
                      "index": 0
                  },
                  {
                      "players": [
                                     "POTATOMINER"
                                 ],
                      "econ": 1,
                      "ai": false,
                      "secondary_color": [
                                             0,
                                             223,
                                             0
                                         ],
                      "defeated": true,
                      "spec_tag": "",
                      "name": "POTATOMINER",
                      "primary_color": [
                                           223,
                                           140,
                                           107
                                       ],
                      "index": 1
                  },
                  {
                      "players": [
                                     "\u96d1\u5dfe"
                                 ],
                      "econ": 1,
                      "ai": false,
                      "secondary_color": [
                                             70,
                                             70,
                                             70
                                         ],
                      "defeated": false,
                      "spec_tag": "",
                      "name": "\u96d1\u5dfe",
                      "primary_color": [
                                           200,
                                           200,
                                           200
                                       ],
                      "index": 2
                  },
                  {
                      "players": [
                                     "Kamesuta"
                                 ],
                      "econ": 1,
                      "ai": false,
                      "secondary_color": [
                                             255,
                                             144,
                                             47
                                         ],
                      "defeated": true,
                      "spec_tag": "",
                      "name": "Kamesuta",
                      "primary_color": [
                                           219,
                                           217,
                                           37
                                       ],
                      "index": 3
                  }
              ],
    "save": {
                "name": "2019-02-09-13-13-43.780Z-replay",
                "type": "replay",
                "utc_timestamp": 1549718023,
                "valid_range": [
                                   40200,
                                   -1
                               ]
            }
}